<?xml version="1.0" encoding="UTF-8" standalone="no"?>
<!-- Created with Inkscape (http://www.inkscape.org/) -->

<svg
   xmlns:dc="http://purl.org/dc/elements/1.1/"
   xmlns:cc="http://creativecommons.org/ns#"
   xmlns:rdf="http://www.w3.org/1999/02/22-rdf-syntax-ns#"
   xmlns:svg="http://www.w3.org/2000/svg"
   xmlns="http://www.w3.org/2000/svg"
   xmlns:sodipodi="http://sodipodi.sourceforge.net/DTD/sodipodi-0.dtd"
   xmlns:inkscape="http://www.inkscape.org/namespaces/inkscape"
   width="12mm"
   height="11.59713mm"
   viewBox="0 0 42.519681 41.092191"
   id="svg2"
   version="1.1"
   inkscape:version="0.92.2 (unknown)"
   sodipodi:docname="marker.svg">
  <defs
     id="defs4" />
  <sodipodi:namedview
     id="base"
     pagecolor="#ffffff"
     bordercolor="#666666"
     borderopacity="1.0"
     inkscape:pageopacity="0"
     inkscape:pageshadow="2"
     inkscape:zoom="7.919596"
     inkscape:cx="49.080945"
     inkscape:cy="7.3150301"
     inkscape:document-units="px"
     inkscape:current-layer="g4704"
     showgrid="false"
     fit-margin-top="0"
     fit-margin-left="0"
     fit-margin-right="0"
     fit-margin-bottom="0"
     inkscape:window-width="1366"
     inkscape:window-height="709"
     inkscape:window-x="0"
     inkscape:window-y="0"
     inkscape:window-maximized="1"
     showguides="true"
     inkscape:guide-bbox="true">
    <sodipodi:guide
       position="-32.442811,25.143861"
       orientation="0,1"
       id="guide4167"
       inkscape:locked="false" />
    <sodipodi:guide
       position="-21.83621,15.294873"
       orientation="0,1"
       id="guide4169"
       inkscape:locked="false" />
    <sodipodi:guide
       position="-24.866667,30.068355"
       orientation="0,1"
       id="guide4171"
       inkscape:locked="false" />
    <sodipodi:guide
       position="-23.982783,10.370379"
       orientation="0,1"
       id="guide4173"
       inkscape:locked="false" />
  </sodipodi:namedview>
  <metadata
     id="metadata7">
    <rdf:RDF>
      <cc:Work
         rdf:about="">
        <dc:format>image/svg+xml</dc:format>
        <dc:type
           rdf:resource="http://purl.org/dc/dcmitype/StillImage" />
        <dc:title></dc:title>
      </cc:Work>
    </rdf:RDF>
  </metadata>
  <g
     inkscape:label="Ebene 1"
     inkscape:groupmode="layer"
     id="layer1"
     transform="translate(-118.86574,-456.65766)">
    <g
       id="g4704">
      <circle
         class="marker stroke"
         style="opacity:1;fill:#000000;fill-opacity:0;stroke:#000000;stroke-width:5.08781242;stroke-linecap:butt;stroke-linejoin:miter;stroke-miterlimit:4;stroke-dasharray:none;stroke-dashoffset:4.00312519;stroke-opacity:1"
         id="path822-3"
         cx="140.12558"
         cy="477.20377"
         r="17.974329" />
    </g>
  </g>
</svg>
